Pulling Reports with rdfp
…
                               list(dimensions = 'MONTH_AND_YEAR',
                                    dimensions = 'AD_UNIT_ID',
                                    dimensions = 'AD_UNIT_NAME',
                                    dimensions = 'ADVERTISER_NAME',
                                    dimensions = 'ORDER_NAME',
                                    dimensions = 'LINE_ITEM_NAME',
                                    adUnitView = 'FLAT',
                                    columns = 'AD_SERVER_IMPRESSIONS', 
                                    columns = 'AD_SERVER_CLICKS',
                                    dateRangeType = 'LAST_WEEK')
                             )
                      )
report_data <- dfp_full_report_wrapper(request_data)
report_data[,c('Dimension.MONTH_AND_YEAR', 'Dimension.AD_UNIT_ID', 'Column.AD_SERVER_CLICKS')]
#> # A tibble: 7,040 x 3
#>    Dimension.MONTH_AND_YEAR Dimension.AD_UNIT_ID Column.AD_SERVER_CLICKS
#>    <chr>                                   <dbl>                   <dbl>
#>  1 2018-12                           21677451947                       1
#>  2 2018-12                           21677451947                      23
#>  3 2018-12                           21677451947                       9
#>  4 2018-12                           21677451947                     150
#>  5 2018-12                           21677451947                       0
#>  6 2018-12                           21677451947                      41
#>  7 2018-12                           21677451947                      73
#>  8 2018-12                           21677451947                      37
#>  9 2018-12                           21677451947                      23
#> 10 2018-12                           21677451947                      32
#> # ... with 7,030 more rows

Working with Saved Queries

DFP has a feature that allows for saving query criteria. These queries can be pulled back via the API and the criteria submitted back so that you always run the same report each time, or can easily replicate a query that another person has created in the UI.

# look for a particular saved query
request_data <- list(filterStatement=list(query="WHERE id = 936165016"))
this_result <- dfp_getSavedQueriesByStatement(request_data, as_df=FALSE)
this_report_query <- this_result[[1]]$reportQuery

# resubmit the report job with the saved query
report_data <- list(reportJob=list(reportQuery = this_report_query))
report_data <- dfp_full_report_wrapper(report_data)
report_data[,c('Dimension.AD_UNIT_ID', 'Column.AD_SERVER_CLICKS')]
#> # A tibble: 7,228 x 2
#>    Dimension.AD_UNIT_ID Column.AD_SERVER_CLICKS
#>                   <dbl>                   <dbl>
#>  1          21677451947                       9
#>  2          21677451947                     204
#>  3          21677451947                      19
#>  4          21677451947                     668
#>  5          21677451947                       2
#>  6          21677451947                     112
#>  7          21677451947                     182
#>  8          21677451947                      75
#>  9          21677451947                     211
#> 10          21677451947                     222
#> # ... with 7,218 more rows
…
